name,m,q,manual_dist,diameter,type,score,
test1,"-0,125",",50","40,0","2,0",pin,",80","1,0"
test2,"-,1450",",750","40,0","2,0",pin,",70","1,0"
test3,"-,1260",",960","24,0","2,0",pin,",750","1,0"
test4,"-,5540","3,90","41,50","2,0",pin,",30",",0"
test5,",180","-2,250","29,0","2,0",pin,",90","1,0"
test6,",110","-,940","29,0","3,50",cable_red,",10",",0"
test7,"-,210","-1,0","22,0","3,50",cable_red,",50",",0"
test8,",240","-,170","27,0","3,50",cable_red,",150",",0"
test9,",320","-1,350","30,0","3,50",cable_red,",20",",0"
test10,"-,180","2,920","27,0","3,50",cable_red,",90","1,0"
test11,"-,170","-3,50","30,0","3,50",cable_red,",880","1,0"
test12,"-,290","3,240","35,0","3,50",cable_red,",40",",0"
test13,"-0,07",",670","74,0","3,50",cable_red,",20",",0"
test14,"-,080","2,410","36,0","2,0",cable_orange,",40",",0"
test15,"-,0060","-2,40","32,0","2,0",cable_orange,",550","1,0"
test16,",420","-2,0","29,0","2,0",cable_orange,",090",",0"
test17,"-,030","1,570","29,0","2,0",cable_orange,",120",",0"
test18,"-,060","-5,450","30,0","2,0",cable_orange,",80","1,0"
test19,"-,580","1,750","32,0","2,0",cable_orange,",10",",0"
test20,"-,020","1,160","24,0","2,0",cable_orange,",90","1,0"
test21,",070","-4,250","35,0","2,0",cable_orange,",050",",0"
test22,"-,070","-3,790","38,0","2,0",cable_orange,",850","1,0"
test23,",420","-1,450","32,0","2,0",cable_orange,",20",",0"